
****** Webtalk v2016.3 (64-bit)
  **** SW Build 1682563 on Mon Oct 10 19:07:27 MDT 2016
  **** IP Build 1681267 on Mon Oct 10 21:28:31 MDT 2016
    ** Copyright 1986-2016 Xilinx, Inc. All Rights Reserved.

source D:/GBT-FPGA/gbt/example_designs/xilinx_k7v7/kc705/vivado_project/kc705_gbt_example_design.hw/webtalk/labtool_webtalk.tcl -notrace
INFO: [Common 17-186] 'D:/GBT-FPGA/gbt/example_designs/xilinx_k7v7/kc705/vivado_project/kc705_gbt_example_design.hw/webtalk/usage_statistics_ext_labtool.xml' has been successfully sent to Xilinx on Fri Feb 02 09:17:10 2018. For additional details about this file, please refer to the WebTalk help file at D:/Xilinx/Vivado/2016.3/doc/webtalk_introduction.html.
INFO: [Common 17-206] Exiting Webtalk at Fri Feb 02 09:17:10 2018...
